…
## Browse available datasets

`list_datasets()` returns a tibble of all datasets in the package
registry. No network call is made.

``` r
library(inspercidados)

list_datasets()
#> # A tibble: 22 × 7
#>    alias                  title          description theme region keywords doi  
#>    <chr>                  <chr>          <chr>       <chr> <chr>  <chr>    <chr>
#>  1 itbi_sp                Imposto sobre… "Registros… Habi… São P… Residên… 10.6…
#>  2 iptu_sp                Cadastro de i… "Informaçõ… Habi… São P… Residên… 10.6…
#>  3 alvaras_sp             Alvarás de li… "Informaçõ… Habi… São P… Residên… 10.6…
#>  4 censo_setores_sp       População e D… "Dados pro… Habi… São P… CENSO; … 10.6…
#>  5 densidade_vertical_sp  Densidade Pop… "Dados do … Habi… São P… Habitaç… 10.6…
#>  6 iptu_verticalizacao_sp IPTU e Vertic… "Dados dem… Habi… São P… Habitaç… 10.6…
#>  7 densidade_imoveis_sp   Densidade Pop… "Cruzament… Habi… São P… Habitaç… 10.6…
#>  8 geoses_sp              Índice GeoSES… "Índice so… Mult… São P… Índice … 10.6…
#>  9 mortalidade_sp         Mortalidade p… "Medidas d… Saúde São P… Mortali… 10.6…
#> 10 ubs_sp                 Gastos com UB… "Gastos co… Saúde São P… Saúde P… 10.6…
#> # ℹ 12 more rows
```
…
